4 Modeling the spread of COVID-19 in a single country | _main.utf8
…
57.7

0

R

2.46e-01

0.003

77.9

0

## # A tibble: 26 x 5
##        t confirmed   C_0 .fitted .resid
##    <dbl>     <dbl> <dbl>   <dbl>  <dbl>
##  1     0       652   652    652     0  
##  2     1       652   652    827. -175. 
##  3     2      1139   652   1046.   92.8
##  4     3      1359   652   1320.   39.0
##  5     4      2200   652   1660.  540. 
##  6     5      2200   652   2078.  122. 
##  7     6      2700   652   2588.  112. 
##  8     7      3028   652   3202. -174. 
##  9     8      4075   652   3932.  143. 
## 10     9      5294   652   4785.  509. 
## # ... with 16 more rows
…
